<svg width="24" height="24" viewBox="0 0 24 24" fill="none" xmlns="http://www.w3.org/2000/svg">
    <path d="M2.50003 19.0001H21.5V21.0001H2.50003V19.0001ZM22.07 9.64007C21.86 8.84007 21.03 8.36007 20.23 8.58007L14.92 10.0001L8.02003 3.57007L6.09003 4.08007L10.23 11.2501L5.26003 12.5801L3.29003 11.0401L1.84003 11.4301L4.43003 15.9201L21 11.4901C21.81 11.2601 22.28 10.4401 22.07 9.64007Z"
          fill="#2758F2" fill-opacity="0.54"/>
</svg>
